@startuml
hide circle
skinparam linetype ortho

frame "Leads Service" as leads_service {

    entity "Leads" as leads {
        id: integer (PK)
        ---
    '    institute_id: integer
        requested_amount : integer
        requested_tenure : integer
        requested_payment : integer
        requested_payment_frequency : integer (m)
        stage : integer (m)
        status : integer (m)
        created : date
        last_updated : date
        external_id : String
        external_id_type : integer (m)
        followup_date : date
    }

    entity "Leads Source" as lead_sources {
        id : integer (PK)
        leads_id : integer (FK)
        ---
        sourcing_channel_type : integer (m)
        sourcing_channel_id : integer
        sourcing_medium : integer (m)
        sourcing_channel_user : varchar
        sourcing_location : integer (m)
        sourcing_branch : integer (m)
    }

    entity "Contacts" as contacts {
        id : integer (PK)
        contact_id : varchar
        ---
        contact_category : integer (m)
        contact_type : integer (m)
        first_name : varchar
        middle_name : varchar
        last_name : varchar
        gender : integer (m)
        mothers_name : varchar
        fathers_name : varchar
        dob : date
        marital_status : integer (m)
        nationality : integer (m)
        designation : integer (m)
        religion : varchar
        external_id : varchar
        exteenal_id_type : integer (m)
    }

    entity "Lead Activity" as lead_activities {
        id : integer (PK)
        leads_id : integer (FK)
        ---
        type : integer (m)
        data : varchar
    }

    entity "Lead-Contacts" as leads_contacts {
        id : integer (PK)
        ---
        lead_id : integer (FK)
        contact_id : integer (FK)
    }

    entity "Phone" as contact_phones {
        id : integer (PK)
        contact_id: integer (FK)
        ---
        label: integer (m)
        country_code: integer (m)
        province_code: integer (m)
        number: varchar
    }

    entity "Email" as contact_emails {
        id : integer (PK)
        contact_id: integer (FK)
        ---
        label: integer (m)
        email: varchar
    }

    entity "Address" as contact_addresses {
        id : integer (PK)
        contact_id : integer (FK)
        ---
        address_type : integer (m)
        address_line_1 : varchar
        address_line_2 : varchar
        address_line_3 : varchar
        address_line_4 : varchar
        city : varchar
        "state" : varchar
        pincode : varchar
        country : varchar
        latitude : numeric
        longitude : numeric
        mail_delivery_status : boolean
        address_proof_id : integer
    }

    leads -left- lead_sources
    leads -down-o{ lead_activities
    leads -right-o{ leads_contacts
    contacts -left-o{ leads_contacts
    contacts --|{ contact_phones
    contacts --|{ contact_emails
    contacts --|{ contact_addresses
}
@enduml